// Jest Snapshot v1, https://goo.gl/fbAQLP

exports[`Filter render snapshot 1`] = `
<div
  class="filter-container"
>
  <list-stub
    activeitem="test active Item 1"
    list=""
    listname="test list name 1"
    onclick="function mockConstructor() {
        return fn.apply(this, arguments);
      }"
  />
  <list-stub
    activeitem="test active Item 2"
    list=""
    listname="test list name 2"
    onclick="function mockConstructor() {
        return fn.apply(this, arguments);
      }"
  />
</div>
`;
